{
  "rules": {
    "tags": {
      ".read": false,
      ".write": false
    },
    "modules": {
      ".read": true,
      ".write": false
    },
    "contacts": {
      "$uid": {
        "withTags": {
          ".read": "auth.uid == $uid"
        }
      },
      ".write": false
    },
    "relations": {
      ".read": false,
      ".write": false
    },
    "presence": {
      "$uid": {
        ".read": "auth.uid != null",
        ".write": "auth.uid == $uid"
      }
    },
    "messages": {
      ".read": "auth.uid != null",
      "$messageId": {
        ".read": "auth != null && root.child('users').child(auth.uid).child('index').child('messages').child($messageId).exists()",
        ".validate": "newData.hasChildren(['deleted'])",
        "content": {
          ".validate": "newData.hasChildren(['header', 'body', 'type'])",
          "type": {
            ".validate": "newData.isString() && newData.val() === 'text' || newData.val() === 'image'"
          },
          "body": {
            ".validate": "newData.hasChildren(['content', 'title'])",
            "title": {
              ".validate": "newData.isString()"
            },
            "content": {
              ".validate": "newData.isString()"
            }
          },
          "header": {
            ".validate": "newData.hasChildren(['date', 'senderId', 'senderName', 'moduleVersion', 'moduleId', 'moduleIcon', 'moduleIconBackground', 'moduleIconName', 'moduleName'])",
            "senderId": {
              ".validate": "newData.isString()"
            },
            "senderName": {
              ".validate": "newData.isString()"
            },
            "date": {
              ".validate": "newData.isString()"
            }
          }
        }
      }
    },
    "users_contacts": {
      "$uid": {
        ".read": "auth.uid == $uid",
        ".write": "auth.uid == $uid"
      }
    },
    "users": {
      ".indexOn": ["profile/mobilePhone"],
      "$uid": {
        ".read": "auth.uid == $uid",
        ".write": "auth.uid == $uid",
        "chats": {
          "$contactId": {
            "writing": {
              ".read": "auth.uid == $uid || $contactId == auth.uid",
              ".write": "auth.uid == $uid || $contactId == auth.uid"
            },
            "lastChange": {
              ".validate": "newData.isNumber()",
              ".write": "auth.uid == $uid || $contactId == auth.uid"
            },
            "profile": {
              ".validate": "newData.hasChildren(['displayName', 'gender', 'email', 'mobilePhone']) && (newData.child('mobilePhone').isString() && newData.child('mobilePhone').val().length === 11 || newData.child('email').isString() && newData.child('email').val().matches(/^[A-Z0-9._%+-]+@[A-Z0-9.-]+\\.[A-Z]{2,4}$/i))",
              ".write": "auth.uid == $uid || $contactId == auth.uid",
              "displayName": {
                ".validate": "newData.isString()"
              },
              "gender": {
                ".validate": "newData.isString() && newData.val() === 'female' || newData.val() === 'male'"
              }
            },
            "messages": {
              "$messageId": {
                ".validate": "newData.hasChildren(['content', 'date', 'type', 'senderId'])",
                ".write": "auth.uid == $uid || $contactId == auth.uid",
                ".read": "auth.uid == $uid",
                "content": {
                  ".validate": "!data.exists() && newData.isString()"
                },
                "date": {
                  ".validate": "newData.isNumber()"
                },
                "type": {
                  ".validate": "newData.isString() && newData.val() === 'text' || newData.val() === 'image'"
                },
                "senderId": {
                  ".validate": "newData.isString() && newData.val() === $uid || newData.val() === $contactId"
                },
                "deleted": {
                  ".write": "auth.uid == $uid"
                },
                "received": {
                  ".write": "auth.uid == $uid || $contactId == auth.uid",
                  ".validate": "(!data.exists() && newData.val() === false) || (data.val() === false && newData.val() === true)"
                },
                "read": {
                  ".write": "auth.uid == $uid || $contactId == auth.uid",
                  ".validate": "(!data.exists() && newData.val() === false) || (data.val() === false && newData.val() === true)"
                }
              }
            }
          }
        },
        "index": {
          ".read": "auth.uid == $uid",
          ".write": "auth.uid == $uid"
        },
        "messages": {
          "$messageId": {
            ".read": "auth.uid == $uid",
            ".write": "auth.uid == $uid",
            ".validate": "newData.hasChildren(['deleted'])",
            "deleted": {
              ".write": "auth.uid == $uid"
            },
            "content": {
              ".validate": "newData.hasChildren(['header', 'body', 'type'])",
              "body": {
                ".validate": "newData.hasChildren(['content', 'title'])",
                "content": {
                  ".validate": "newData.isString()"
                },
                "title": {
                  ".validate": "newData.isString()"
                }
              },
              "header": {
                ".validate": "newData.hasChildren(['date', 'senderId', 'senderName', 'moduleVersion', 'moduleId', 'moduleIcon', 'moduleIconBackground', 'moduleIconName', 'moduleName'])",
                "senderId": {
                  ".validate": "newData.isString()"
                },
                "senderName": {
                  ".validate": "newData.isString()"
                },
                "date": {
                  ".validate": "newData.isString()"
                }
              }
            }
          }
        }
      }
    }
  }
}