<!-- Generated by IcoMoon.io -->
<svg fill="#676767" version="1.1" xmlns="http://www.w3.org/2000/svg" width="576" height="576" viewBox="0 0 576 576">
<title>group</title>
<g id="icomoon-ignore">
</g>
<path d="M544 32h-320c-17.672 0-32 14.328-32 32v96h-160c-17.672 0-32 14.328-32 32v320c0 17.672 14.328 32 32 32h320c17.672 0 32-14.328 32-32v-96h160c17.672 0 32-14.328 32-32v-320c0-17.672-14.328-32-32-32zM320 464c0 8.828-7.156 16-16 16h-224c-8.844 0-16-7.172-16-16v-224c0-8.844 7.156-16 16-16h224c8.844 0 16 7.156 16 16v224zM512 336c0 8.828-7.156 16-16 16h-112v-160c0-17.672-14.328-32-32-32h-96v-48c0-8.844 7.156-16 16-16h224c8.844 0 16 7.156 16 16v224z"></path>
</svg>
