<!-- Generated by IcoMoon.io -->
<svg version="1.1" xmlns="http://www.w3.org/2000/svg" width="576" height="576" viewBox="0 0 576 576">
<title></title>
<g id="icomoon-ignore">
</g>
<path fill="white" d="M544 64h-512c-17.672 0-32 14.328-32 32v384c0 17.672 14.328 32 32 32h512c17.672 0 32-14.328 32-32v-384c0-17.672-14.328-32-32-32zM64 128h64v64h-64v-64zM64 256h64v64h-64v-64zM64 448v-64h64v64h-64zM192 448v-320h192v320h-192zM512 448h-64v-64h64v64zM512 320h-64v-64h64v64zM512 192h-64v-64h64v64z"></path>
</svg>
