<!-- Generated by IcoMoon.io -->
<svg version="1.1" xmlns="http://www.w3.org/2000/svg" width="576" height="576" viewBox="0 0 576 576">
<title></title>
<g id="icomoon-ignore">
</g>
<path fill="#666" d="M303.684 534.168l230.662-229.756c6.186-6.154 9.654-14.527 9.654-23.244v-216.088c0-18.121-14.699-32.82-32.852-32.82h-216.072c-8.717 0-17.074 3.468-23.229 9.623l-230.24 230.225c-6.404 6.404-9.607 14.809-9.607 23.197s3.203 16.793 9.607 23.197l215.635 215.619c12.809 12.81 33.602 12.825 46.442 0.047zM269.224 455.641l-149.042-149.042c-6.248-6.249-6.248-16.354 0-22.588l187.813-187.798h156.009c8.826 0 15.996 7.154 15.996 15.965v156.071l-188.156 187.407c-6.249 6.248-16.371 6.217-22.62-0.015z"></path>
<path fill="#666" d="M367.996 256.049c-26.509 0-48.004-21.479-48.004-47.957 0-26.494 21.495-47.957 48.004-47.957 26.51 0 48.004 21.463 48.004 47.957 0 26.477-21.494 47.957-48.004 47.957z"></path>
</svg>
